"x","1","2","3"
1,0.00398994270958597,0.00123395958516036,0.0032949372031877
2,0.00505901929222077,-0.00593357638478573,-0.015284634504429
3,-0.0085549525196886,-0.0239764783810472,-0.0297358142249215
4,-0.0547854001791943,-0.122421533371796,-0.0324372462971696
5,-0.0742849038329449,-0.0941012728471496,0.031999190907865
6,-0.0313691587150966,0.0693228764140546,0.173962159051124
7,0.0598500857842755,0.134478644053667,0.0521805702357145
8,0.186529393123719,0.143356627653385,0.250587026623935
9,0.267439632629213,0.233989732134516,-0.0200785314420195
10,0.352358389952415,-0.182015842571546,-0.54502796922117
11,0.0257008988428287,-0.250306163545727,-0.336448455006027
12,-0.555556523877693,-0.319420860343566,-0.522852653056617
13,-0.608517749473208,-0.343153051069329,-0.394350056102657
14,-0.634437500011652,0.240908267515359,0.0911387658376132
15,0.312449717954675,0.505934188494754,1.06039496897145
16,0.565657205229375,0.165212980488613,0.764515230575586
17,1.10697251597799,0.385377680355777,0.0457941010145101
18,1.2194241790672,0.00996018253464355,-0.668682737521179
19,0.214533430202517,-0.679312795620089,-0.752524058215195
20,-0.919190835411689,-0.417396255688339,-0.952549054834895
21,-1.34796450526175,-0.701534819626635,0.0598959513396074
22,-0.0565519333880134,-0.268336765158194,0.806887256598798
23,0.354532715675175,1.21528208447222,0.763411614294883
24,0.608741450919818,1.19596251087644,0.0715404024033796
25,0.653576240542005,0.217306208857658,0.346816416575721
26,0.311743299583469,0.832421586569686,-1.3390323093905
27,-0.371798658807926,-0.957737162310292,-1.25543322687107
28,-0.65888534317043,-0.817154706736535,0.00148247419806612
29,-1.85701492148621,-0.492041299652965,0.517302290360397
30,-0.891340049946711,0.303100686729284,1.04080046150557
31,0.442225847665507,1.10974280392826,0.799031455698559
32,0.607316953291323,0.235651877363601,-0.0614939032141205
33,0.474329296922541,0.829126424791669,0.0454547459236834
34,0.580992133539638,-0.049854618467341,-0.663651146991994
35,-0.344815761360296,-1.03251580474805,-0.341399066814132
36,-0.365742096329371,-0.491611399006571,-0.370618515430882
37,-0.362221540847566,-0.592912101678961,-0.208268377485985
38,-0.302605534020994,-0.347753018503816,0.24916529472686
39,0.164872528520515,0.0623734458134711,0.347632228630542
40,0.267064467242846,0.559744377619367,0.139280922057771
41,0.0665381488285471,0.30790212756458,0.298966182923341
42,0.116472764779929,0.0138403592829955,-0.0876743874562698
43,0.00220549061659962,-0.148066915235292,-0.187030394725806
44,-0.106488386479112,-0.117964909924743,-0.145083083692354
45,-0.0440656951791353,-0.100563279429295,-0.093287458738981
46,-0.0462478611984793,0.00394857042930426,0.022061073352144
47,-0.00976462857361117,0.0293621873127316,0.0409161340234797
48,0.0193948227258205,0.0121833713466712,0.0139580303332309
49,0.00473392501381834,0.000283175180957639,-0.00125711889016718
50,3.25907112567434e-33,5.20141313547168e-33,-1.74788891170617e-32
